{
  "project_info": {
    "project_number": "1043268297799",
    "firebase_url": "https://linc-a380e.firebaseio.com",
    "project_id": "linc-a380e",
    "storage_bucket": "linc-a380e.appspot.com"
  },
  "client": [
    {
      "client_info": {
        "mobilesdk_app_id": "1:1043268297799:android:409f0a189fe4b77f",
        "android_client_info": {
          "package_name": "com.fyp.atom.linc"
        }
      },
      "oauth_client": [
        {
          "client_id": "1043268297799-77v3gp1ame675008626ohr77tkbrqgqf.apps.googleusercontent.com",
          "client_type": 3
        }
      ],
      "api_key": [
        {
          "current_key": "AIzaSyCHyriSw_o6MG7fH8XXk8xqLQa6ktRJ0pU"
        }
      ],
      "services": {
        "analytics_service": {
          "status": 1
        },
        "appinvite_service": {
          "status": 1,
          "other_platform_oauth_client": []
        },
        "ads_service": {
          "status": 2
        }
      }
    }
  ],
  "configuration_version": "1"
}